<svg width="27" height="22" viewBox="0 0 27 22" fill="none" xmlns="http://www.w3.org/2000/svg">
<path d="M25.5555 4.77734V16.8662C25.5555 17.6677 25.5555 19.8885 25.5555 19.8885H1.55554V19.0033C1.55554 19.0033 1.55572 17.6677 1.55572 16.8662V4.77734" stroke="white" stroke-width="2.5" stroke-linecap="square"/>
<path d="M25.5555 5.05764C25.5555 4.27622 25.5555 2.11133 25.5555 2.11133H1.55554C1.55554 2.11133 1.55554 4.27622 1.55554 5.05764L13.5555 11.8891L25.5555 5.05764Z" stroke="white" stroke-width="2.5" stroke-linecap="square"/>
</svg>
