<svg width="29" height="31" viewBox="0 0 29 31" fill="none" xmlns="http://www.w3.org/2000/svg">
<path d="M4.36227 4.60435L7.42647 2.0332L13.8544 9.69365L9.25807 13.5504L16.0074 21.5939L20.6036 17.7372L27.0315 25.3976L23.9673 27.9688C21.0058 30.4538 16.5905 30.0675 14.1055 27.106L3.49947 14.4662C1.01447 11.5047 1.40077 7.08935 4.36227 4.60435Z" stroke="white" stroke-width="2"/>
</svg>
